# compile vhdl design source files
vhdl xil_defaultlib  "../../../Dec2_4En.srcs/sources_1/new/Dec2_4En.vhd"
vhdl xil_defaultlib  "../../../Dec2_4En.srcs/sources_1/new/Dec2_4En_Tb.vhd"

# Do not sort compile order
nosort
