# compile vhdl design source files
vhdl xil_defaultlib  "../../../TimerN_Demo.srcs/sources_1/new/TimerN.vhd"
vhdl xil_defaultlib  "../../../TimerN_Demo.srcs/sources_1/new/TimerN_Demo.vhd"

# Do not sort compile order
nosort
