Design Route Status
                                               :      # nets :
   ------------------------------------------- : ----------- :
   # of logical nets.......................... :          96 :
       # of nets not needing routing.......... :          38 :
           # of internally routed nets........ :          38 :
       # of routable nets..................... :          58 :
           # of fully routed nets............. :          58 :
       # of nets with routing errors.......... :           0 :
   ------------------------------------------- : ----------- :

