Exception at PC 0x00007FFE14757788
Exception at PC 0x00007FFE14757788
Unable to capture context for thread 2952 in process 15476, can not generate back trace
Unable to capture context for thread 12720 in process 15476, can not generate back trace
Unable to capture context for thread 12720 in process 15476, can not generate back trace
Exception at PC 0x00007FFE14757788
Exception at PC 0x00007FFDAF59BB93
Printing stacktrace...

Exception at PC 0x00007FFE14757788
Exception at PC 0x00007FFE14757788
Exception at PC 0x00007FFE14757788
Exception at PC 0x00007FFE14757788
Exception at PC 0x00007FFE14757788
Exception at PC 0x00007FFE14757788
Exception at PC 0x00007FFE14757788
Exception at PC 0x00007FFE14757788
Exception at PC 0x00007FFE14757788
Exception at PC 0x00007FFE14757788
Exception at PC 0x00007FFE14757788
Exception at PC 0x00007FFE14757788
Exception at PC 0x00007FFE14757788
Exception at PC 0x00007FFE14757788
Exception at PC 0x00007FFE14757788
Exception at PC 0x00007FFE14757788
[0]  [0x00007FFDAF59BB93]
[1]  [0x00007FFDAF59BB93]
[2]  [0x00007FFDAF59B4A1]
[3]  [0x00007FFDAF59B3EF]
[4]  [0x00007FFDAF5819FE]
[5]  [0x00007FFDAF580ED1]
[6]  [0x00007FFDAF580D76]
[7]  [0x00007FFDAF5279F6]
[8]  [0x00007FFDAF517AFB]
[9]  [0x00007FFDAF63E90A]
[10]  [0x00007FFDAF659F87]
[11]  [0x00007FFDAF65A05F]
[12] (BaseThreadInitThunk+0x14) [0x00007FFE14D48364]
[13] (RtlUserThreadStart+0x21) [0x00007FFE17815E91]
Done
